Santa, Clause, 1 North Pole Ln, Top of the Earth
Easter, Bunny, Top-Secret Location, Easter Island
Tooth, Fairy, Small Town Clouds, Magic Land Anywhere USA
Mr., Sandman, Night Time Dream Land, 12 AM and On
Clark, Kent, 344 Clinton Street, Midtown Metropolis
Scary, Monster, Under My Bed, In My House
