000 File      Master 10 10 10 10 20 20 20 50 50 100
001 Noveselic Krist  10 8  9  10 15 15 12 40 45 89
002 Lennon    John   10 7  10 5  12 20 20 36 0  0
003 Dickinson Bruce  8  8  8  8  18 18 18 48 48 75
004 Cooper    Alice  4  6  6  5  13 17 17 26 40 65
005 Waters    Roger  0  10 0  10 14 12 19 31 47 52 
